{
    "page": 1,
    "per_page": 15,
    "photos": [
        {
            "id": 45201,
            "width": 2392,
            "height": 2500,
            "url": "https://www.pexels.com/photo/white-and-grey-kitten-on-brown-and-black-leopard-print-textile-45201/",
            "photographer": "Pixabay",
            "photographer_url": "https://www.pexels.com/@pixabay",
            "photographer_id": 2659,
            "avg_color": "#4E4340",
            "src": {
                "original": "https://images.pexels.com/photos/45201/kitty-cat-kitten-pet-45201.jpeg",
                "large2x": "https://images.pexels.com/photos/45201/kitty-cat-kitten-pet-45201.jpeg?auto=compress&cs=tinysrgb&dpr=2&h=650&w=940",
                "large": "https://images.pexels.com/photos/45201/kitty-cat-kitten-pet-45201.jpeg?auto=compress&cs=tinysrgb&h=650&w=940",
                "medium": "https://images.pexels.com/photos/45201/kitty-cat-kitten-pet-45201.jpeg?auto=compress&cs=tinysrgb&h=350",
                "small": "https://images.pexels.com/photos/45201/kitty-cat-kitten-pet-45201.jpeg?auto=compress&cs=tinysrgb&h=130",
                "portrait": "https://images.pexels.com/photos/45201/kitty-cat-kitten-pet-45201.jpeg?auto=compress&cs=tinysrgb&fit=crop&h=1200&w=800",
                "landscape": "https://images.pexels.com/photos/45201/kitty-cat-kitten-pet-45201.jpeg?auto=compress&cs=tinysrgb&fit=crop&h=627&w=1200",
                "tiny": "https://images.pexels.com/photos/45201/kitty-cat-kitten-pet-45201.jpeg?auto=compress&cs=tinysrgb&dpr=1&fit=crop&h=200&w=280"
            },
            "alt": "White and Grey Kitten on Brown and Black Leopard Print Textile"
        },
        {
            "id": 45170,
            "width": 2400,
            "height": 1334,
            "url": "https://www.pexels.com/photo/assorted-color-kittens-45170/",
            "photographer": "Pixabay",
            "photographer_url": "https://www.pexels.com/@pixabay",
            "photographer_id": 2659,
            "avg_color": "#748B52",
            "src": {
                "original": "https://images.pexels.com/photos/45170/kittens-cat-cat-puppy-rush-45170.jpeg",
                "large2x": "https://images.pexels.com/photos/45170/kittens-cat-cat-puppy-rush-45170.jpeg?auto=compress&cs=tinysrgb&dpr=2&h=650&w=940",
                "large": "https://images.pexels.com/photos/45170/kittens-cat-cat-puppy-rush-45170.jpeg?auto=compress&cs=tinysrgb&h=650&w=940",
                "medium": "https://images.pexels.com/photos/45170/kittens-cat-cat-puppy-rush-45170.jpeg?auto=compress&cs=tinysrgb&h=350",
                "small": "https://images.pexels.com/photos/45170/kittens-cat-cat-puppy-rush-45170.jpeg?auto=compress&cs=tinysrgb&h=130",
                "portrait": "https://images.pexels.com/photos/45170/kittens-cat-cat-puppy-rush-45170.jpeg?auto=compress&cs=tinysrgb&fit=crop&h=1200&w=800",
                "landscape": "https://images.pexels.com/photos/45170/kittens-cat-cat-puppy-rush-45170.jpeg?auto=compress&cs=tinysrgb&fit=crop&h=627&w=1200",
                "tiny": "https://images.pexels.com/photos/45170/kittens-cat-cat-puppy-rush-45170.jpeg?auto=compress&cs=tinysrgb&dpr=1&fit=crop&h=200&w=280"
            },
            "alt": "Assorted Color Kittens"
        },
        {
            "id": 617278,
            "width": 4928,
            "height": 3264,
            "url": "https://www.pexels.com/photo/brown-cat-with-green-eyes-617278/",
            "photographer": "Kelvin Valerio",
            "photographer_url": "https://www.pexels.com/@kelvin809",
            "photographer_id": 135974,
            "avg_color": "#20201C",
            "src": {
                "original": "https://images.pexels.com/photos/617278/pexels-photo-617278.jpeg",
                "large2x": "https://images.pexels.com/photos/617278/pexels-photo-617278.jpeg?auto=compress&cs=tinysrgb&dpr=2&h=650&w=940",
                "large": "https://images.pexels.com/photos/617278/pexels-photo-617278.jpeg?auto=compress&cs=tinysrgb&h=650&w=940",
                "medium": "https://images.pexels.com/photos/617278/pexels-photo-617278.jpeg?auto=compress&cs=tinysrgb&h=350",
                "small": "https://images.pexels.com/photos/617278/pexels-photo-617278.jpeg?auto=compress&cs=tinysrgb&h=130",
                "portrait": "https://images.pexels.com/photos/617278/pexels-photo-617278.jpeg?auto=compress&cs=tinysrgb&fit=crop&h=1200&w=800",
                "landscape": "https://images.pexels.com/photos/617278/pexels-photo-617278.jpeg?auto=compress&cs=tinysrgb&fit=crop&h=627&w=1200",
                "tiny": "https://images.pexels.com/photos/617278/pexels-photo-617278.jpeg?auto=compress&cs=tinysrgb&dpr=1&fit=crop&h=200&w=280"
            },
            "alt": "Brown Cat With Green Eyes"
        },
        {
            "id": 320014,
            "width": 1239,
            "height": 1800,
            "url": "https://www.pexels.com/photo/close-up-of-cat-320014/",
            "photographer": "Henda Watani",
            "photographer_url": "https://www.pexels.com/@wonda-stella",
            "photographer_id": 102277,
            "avg_color": "#3A3940",
            "src": {
                "original": "https://images.pexels.com/photos/320014/pexels-photo-320014.jpeg",
                "large2x": "https://images.pexels.com/photos/320014/pexels-photo-320014.jpeg?auto=compress&cs=tinysrgb&dpr=2&h=650&w=940",
                "large": "https://images.pexels.com/photos/320014/pexels-photo-320014.jpeg?auto=compress&cs=tinysrgb&h=650&w=940",
                "medium": "https://images.pexels.com/photos/320014/pexels-photo-320014.jpeg?auto=compress&cs=tinysrgb&h=350",
                "small": "https://images.pexels.com/photos/320014/pexels-photo-320014.jpeg?auto=compress&cs=tinysrgb&h=130",
                "portrait": "https://images.pexels.com/photos/320014/pexels-photo-320014.jpeg?auto=compress&cs=tinysrgb&fit=crop&h=1200&w=800",
                "landscape": "https://images.pexels.com/photos/320014/pexels-photo-320014.jpeg?auto=compress&cs=tinysrgb&fit=crop&h=627&w=1200",
                "tiny": "https://images.pexels.com/photos/320014/pexels-photo-320014.jpeg?auto=compress&cs=tinysrgb&dpr=1&fit=crop&h=200&w=280"
            },
            "alt": "Close-up of Cat"
        },
        {
            "id": 416160,
            "width": 3888,
            "height": 2592,
            "url": "https://www.pexels.com/photo/close-up-photo-of-cute-sleeping-cat-416160/",
            "photographer": "Pixabay",
            "photographer_url": "https://www.pexels.com/@pixabay",
            "photographer_id": 2659,
            "avg_color": "#AB9488",
            "src": {
                "original": "https://images.pexels.com/photos/416160/pexels-photo-416160.jpeg",
                "large2x": "https://images.pexels.com/photos/416160/pexels-photo-416160.jpeg?auto=compress&cs=tinysrgb&dpr=2&h=650&w=940",
                "large": "https://images.pexels.com/photos/416160/pexels-photo-416160.jpeg?auto=compress&cs=tinysrgb&h=650&w=940",
                "medium": "https://images.pexels.com/photos/416160/pexels-photo-416160.jpeg?auto=compress&cs=tinysrgb&h=350",
                "small": "https://images.pexels.com/photos/416160/pexels-photo-416160.jpeg?auto=compress&cs=tinysrgb&h=130",
                "portrait": "https://images.pexels.com/photos/416160/pexels-photo-416160.jpeg?auto=compress&cs=tinysrgb&fit=crop&h=1200&w=800",
                "landscape": "https://images.pexels.com/photos/416160/pexels-photo-416160.jpeg?auto=compress&cs=tinysrgb&fit=crop&h=627&w=1200",
                "tiny": "https://images.pexels.com/photos/416160/pexels-photo-416160.jpeg?auto=compress&cs=tinysrgb&dpr=1&fit=crop&h=200&w=280"
            },
            "alt": "Close-up Photo of Cute Sleeping Cat "
        },
        {
            "id": 177809,
            "width": 1898,
            "height": 1266,
            "url": "https://www.pexels.com/photo/gray-tabby-cat-lying-on-white-surface-177809/",
            "photographer": "Inge Wallumrød",
            "photographer_url": "https://www.pexels.com/@ingewallu",
            "photographer_id": 32456,
            "avg_color": "#AEA8A2",
            "src": {
                "original": "https://images.pexels.com/photos/177809/pexels-photo-177809.jpeg",
                "large2x": "https://images.pexels.com/photos/177809/pexels-photo-177809.jpeg?auto=compress&cs=tinysrgb&dpr=2&h=650&w=940",
                "large": "https://images.pexels.com/photos/177809/pexels-photo-177809.jpeg?auto=compress&cs=tinysrgb&h=650&w=940",
                "medium": "https://images.pexels.com/photos/177809/pexels-photo-177809.jpeg?auto=compress&cs=tinysrgb&h=350",
                "small": "https://images.pexels.com/photos/177809/pexels-photo-177809.jpeg?auto=compress&cs=tinysrgb&h=130",
                "portrait": "https://images.pexels.com/photos/177809/pexels-photo-177809.jpeg?auto=compress&cs=tinysrgb&fit=crop&h=1200&w=800",
                "landscape": "https://images.pexels.com/photos/177809/pexels-photo-177809.jpeg?auto=compress&cs=tinysrgb&fit=crop&h=627&w=1200",
                "tiny": "https://images.pexels.com/photos/177809/pexels-photo-177809.jpeg?auto=compress&cs=tinysrgb&dpr=1&fit=crop&h=200&w=280"
            },
            "alt": "Gray Tabby Cat Lying on White Surface"
        },
        {
            "id": 96428,
            "width": 4896,
            "height": 3264,
            "url": "https://www.pexels.com/photo/black-and-white-tabby-cats-sleeping-on-red-textile-96428/",
            "photographer": "Francesco Ungaro",
            "photographer_url": "https://www.pexels.com/@francesco-ungaro",
            "photographer_id": 21273,
            "avg_color": "#4E3941",
            "src": {
                "original": "https://images.pexels.com/photos/96428/pexels-photo-96428.jpeg",
                "large2x": "https://images.pexels.com/photos/96428/pexels-photo-96428.jpeg?auto=compress&cs=tinysrgb&dpr=2&h=650&w=940",
                "large": "https://images.pexels.com/photos/96428/pexels-photo-96428.jpeg?auto=compress&cs=tinysrgb&h=650&w=940",
                "medium": "https://images.pexels.com/photos/96428/pexels-photo-96428.jpeg?auto=compress&cs=tinysrgb&h=350",
                "small": "https://images.pexels.com/photos/96428/pexels-photo-96428.jpeg?auto=compress&cs=tinysrgb&h=130",
                "portrait": "https://images.pexels.com/photos/96428/pexels-photo-96428.jpeg?auto=compress&cs=tinysrgb&fit=crop&h=1200&w=800",
                "landscape": "https://images.pexels.com/photos/96428/pexels-photo-96428.jpeg?auto=compress&cs=tinysrgb&fit=crop&h=627&w=1200",
                "tiny": "https://images.pexels.com/photos/96428/pexels-photo-96428.jpeg?auto=compress&cs=tinysrgb&dpr=1&fit=crop&h=200&w=280"
            },
            "alt": "Black and White Tabby Cats Sleeping on Red Textile"
        },
        {
            "id": 1643456,
            "width": 5647,
            "height": 3752,
            "url": "https://www.pexels.com/photo/close-up-photo-of-a-hand-holding-three-white-kittens-1643456/",
            "photographer": "Peng Louis",
            "photographer_url": "https://www.pexels.com/@peng-louis-587527",
            "photographer_id": 587527,
            "avg_color": "#676B73",
            "src": {
                "original": "https://images.pexels.com/photos/1643456/pexels-photo-1643456.jpeg",
                "large2x": "https://images.pexels.com/photos/1643456/pexels-photo-1643456.jpeg?auto=compress&cs=tinysrgb&dpr=2&h=650&w=940",
                "large": "https://images.pexels.com/photos/1643456/pexels-photo-1643456.jpeg?auto=compress&cs=tinysrgb&h=650&w=940",
                "medium": "https://images.pexels.com/photos/1643456/pexels-photo-1643456.jpeg?auto=compress&cs=tinysrgb&h=350",
                "small": "https://images.pexels.com/photos/1643456/pexels-photo-1643456.jpeg?auto=compress&cs=tinysrgb&h=130",
                "portrait": "https://images.pexels.com/photos/1643456/pexels-photo-1643456.jpeg?auto=compress&cs=tinysrgb&fit=crop&h=1200&w=800",
                "landscape": "https://images.pexels.com/photos/1643456/pexels-photo-1643456.jpeg?auto=compress&cs=tinysrgb&fit=crop&h=627&w=1200",
                "tiny": "https://images.pexels.com/photos/1643456/pexels-photo-1643456.jpeg?auto=compress&cs=tinysrgb&dpr=1&fit=crop&h=200&w=280"
            },
            "alt": "Close-Up Photo of a Hand Holding Three White Kittens"
        },
        {
            "id": 1741205,
            "width": 3744,
            "height": 5616,
            "url": "https://www.pexels.com/photo/photo-of-orange-tabby-cat-with-red-handkerchief-1741205/",
            "photographer": "Lina Kivaka",
            "photographer_url": "https://www.pexels.com/@lina",
            "photographer_id": 593836,
            "avg_color": "#9D8E8B",
            "src": {
                "original": "https://images.pexels.com/photos/1741205/pexels-photo-1741205.jpeg",
                "large2x": "https://images.pexels.com/photos/1741205/pexels-photo-1741205.jpeg?auto=compress&cs=tinysrgb&dpr=2&h=650&w=940",
                "large": "https://images.pexels.com/photos/1741205/pexels-photo-1741205.jpeg?auto=compress&cs=tinysrgb&h=650&w=940",
                "medium": "https://images.pexels.com/photos/1741205/pexels-photo-1741205.jpeg?auto=compress&cs=tinysrgb&h=350",
                "small": "https://images.pexels.com/photos/1741205/pexels-photo-1741205.jpeg?auto=compress&cs=tinysrgb&h=130",
                "portrait": "https://images.pexels.com/photos/1741205/pexels-photo-1741205.jpeg?auto=compress&cs=tinysrgb&fit=crop&h=1200&w=800",
                "landscape": "https://images.pexels.com/photos/1741205/pexels-photo-1741205.jpeg?auto=compress&cs=tinysrgb&fit=crop&h=627&w=1200",
                "tiny": "https://images.pexels.com/photos/1741205/pexels-photo-1741205.jpeg?auto=compress&cs=tinysrgb&dpr=1&fit=crop&h=200&w=280"
            },
            "alt": "Photo of Orange Tabby Cat With Red Handkerchief "
        },
        {
            "id": 1314550,
            "width": 2832,
            "height": 4240,
            "url": "https://www.pexels.com/photo/beige-cat-with-gold-colored-crown-1314550/",
            "photographer": "Katarzyna Modrzejewska",
            "photographer_url": "https://www.pexels.com/@katarzyna-modrzejewska-495044",
            "photographer_id": 495044,
            "avg_color": "#3B382B",
            "src": {
                "original": "https://images.pexels.com/photos/1314550/pexels-photo-1314550.jpeg",
                "large2x": "https://images.pexels.com/photos/1314550/pexels-photo-1314550.jpeg?auto=compress&cs=tinysrgb&dpr=2&h=650&w=940",
                "large": "https://images.pexels.com/photos/1314550/pexels-photo-1314550.jpeg?auto=compress&cs=tinysrgb&h=650&w=940",
                "medium": "https://images.pexels.com/photos/1314550/pexels-photo-1314550.jpeg?auto=compress&cs=tinysrgb&h=350",
                "small": "https://images.pexels.com/photos/1314550/pexels-photo-1314550.jpeg?auto=compress&cs=tinysrgb&h=130",
                "portrait": "https://images.pexels.com/photos/1314550/pexels-photo-1314550.jpeg?auto=compress&cs=tinysrgb&fit=crop&h=1200&w=800",
                "landscape": "https://images.pexels.com/photos/1314550/pexels-photo-1314550.jpeg?auto=compress&cs=tinysrgb&fit=crop&h=627&w=1200",
                "tiny": "https://images.pexels.com/photos/1314550/pexels-photo-1314550.jpeg?auto=compress&cs=tinysrgb&dpr=1&fit=crop&h=200&w=280"
            },
            "alt": "Beige Cat With Gold-colored Crown"
        },
        {
            "id": 2071873,
            "width": 2326,
            "height": 3495,
            "url": "https://www.pexels.com/photo/orange-tabby-cat-near-window-2071873/",
            "photographer": "Wojciech Kumpicki",
            "photographer_url": "https://www.pexels.com/@wojciech-kumpicki-1084687",
            "photographer_id": 1084687,
            "avg_color": "#95948D",
            "src": {
                "original": "https://images.pexels.com/photos/2071873/pexels-photo-2071873.jpeg",
                "large2x": "https://images.pexels.com/photos/2071873/pexels-photo-2071873.jpeg?auto=compress&cs=tinysrgb&dpr=2&h=650&w=940",
                "large": "https://images.pexels.com/photos/2071873/pexels-photo-2071873.jpeg?auto=compress&cs=tinysrgb&h=650&w=940",
                "medium": "https://images.pexels.com/photos/2071873/pexels-photo-2071873.jpeg?auto=compress&cs=tinysrgb&h=350",
                "small": "https://images.pexels.com/photos/2071873/pexels-photo-2071873.jpeg?auto=compress&cs=tinysrgb&h=130",
                "portrait": "https://images.pexels.com/photos/2071873/pexels-photo-2071873.jpeg?auto=compress&cs=tinysrgb&fit=crop&h=1200&w=800",
                "landscape": "https://images.pexels.com/photos/2071873/pexels-photo-2071873.jpeg?auto=compress&cs=tinysrgb&fit=crop&h=627&w=1200",
                "tiny": "https://images.pexels.com/photos/2071873/pexels-photo-2071873.jpeg?auto=compress&cs=tinysrgb&dpr=1&fit=crop&h=200&w=280"
            },
            "alt": "Orange Tabby Cat Near Window"
        },
        {
            "id": 69932,
            "width": 2303,
            "height": 3012,
            "url": "https://www.pexels.com/photo/close-up-photography-of-white-and-black-cat-69932/",
            "photographer": "Pixabay",
            "photographer_url": "https://www.pexels.com/@pixabay",
            "photographer_id": 2659,
            "avg_color": "#877F78",
            "src": {
                "original": "https://images.pexels.com/photos/69932/tabby-cat-close-up-portrait-69932.jpeg",
                "large2x": "https://images.pexels.com/photos/69932/tabby-cat-close-up-portrait-69932.jpeg?auto=compress&cs=tinysrgb&dpr=2&h=650&w=940",
                "large": "https://images.pexels.com/photos/69932/tabby-cat-close-up-portrait-69932.jpeg?auto=compress&cs=tinysrgb&h=650&w=940",
                "medium": "https://images.pexels.com/photos/69932/tabby-cat-close-up-portrait-69932.jpeg?auto=compress&cs=tinysrgb&h=350",
                "small": "https://images.pexels.com/photos/69932/tabby-cat-close-up-portrait-69932.jpeg?auto=compress&cs=tinysrgb&h=130",
                "portrait": "https://images.pexels.com/photos/69932/tabby-cat-close-up-portrait-69932.jpeg?auto=compress&cs=tinysrgb&fit=crop&h=1200&w=800",
                "landscape": "https://images.pexels.com/photos/69932/tabby-cat-close-up-portrait-69932.jpeg?auto=compress&cs=tinysrgb&fit=crop&h=627&w=1200",
                "tiny": "https://images.pexels.com/photos/69932/tabby-cat-close-up-portrait-69932.jpeg?auto=compress&cs=tinysrgb&dpr=1&fit=crop&h=200&w=280"
            },
            "alt": "Close Up Photography of White and Black Cat"
        },
        {
            "id": 1643457,
            "width": 4000,
            "height": 6000,
            "url": "https://www.pexels.com/photo/person-holding-white-kitten-with-flowers-necklace-1643457/",
            "photographer": "Peng Louis",
            "photographer_url": "https://www.pexels.com/@peng-louis-587527",
            "photographer_id": 587527,
            "avg_color": "#9B9892",
            "src": {
                "original": "https://images.pexels.com/photos/1643457/pexels-photo-1643457.jpeg",
                "large2x": "https://images.pexels.com/photos/1643457/pexels-photo-1643457.jpeg?auto=compress&cs=tinysrgb&dpr=2&h=650&w=940",
                "large": "https://images.pexels.com/photos/1643457/pexels-photo-1643457.jpeg?auto=compress&cs=tinysrgb&h=650&w=940",
                "medium": "https://images.pexels.com/photos/1643457/pexels-photo-1643457.jpeg?auto=compress&cs=tinysrgb&h=350",
                "small": "https://images.pexels.com/photos/1643457/pexels-photo-1643457.jpeg?auto=compress&cs=tinysrgb&h=130",
                "portrait": "https://images.pexels.com/photos/1643457/pexels-photo-1643457.jpeg?auto=compress&cs=tinysrgb&fit=crop&h=1200&w=800",
                "landscape": "https://images.pexels.com/photos/1643457/pexels-photo-1643457.jpeg?auto=compress&cs=tinysrgb&fit=crop&h=627&w=1200",
                "tiny": "https://images.pexels.com/photos/1643457/pexels-photo-1643457.jpeg?auto=compress&cs=tinysrgb&dpr=1&fit=crop&h=200&w=280"
            },
            "alt": "Person Holding White Kitten With Flowers Necklace"
        },
        {
            "id": 208984,
            "width": 3989,
            "height": 5983,
            "url": "https://www.pexels.com/photo/low-angle-shot-of-a-tabby-cat-208984/",
            "photographer": "Pixabay",
            "photographer_url": "https://www.pexels.com/@pixabay",
            "photographer_id": 2659,
            "avg_color": "#81786D",
            "src": {
                "original": "https://images.pexels.com/photos/208984/pexels-photo-208984.jpeg",
                "large2x": "https://images.pexels.com/photos/208984/pexels-photo-208984.jpeg?auto=compress&cs=tinysrgb&dpr=2&h=650&w=940",
                "large": "https://images.pexels.com/photos/208984/pexels-photo-208984.jpeg?auto=compress&cs=tinysrgb&h=650&w=940",
                "medium": "https://images.pexels.com/photos/208984/pexels-photo-208984.jpeg?auto=compress&cs=tinysrgb&h=350",
                "small": "https://images.pexels.com/photos/208984/pexels-photo-208984.jpeg?auto=compress&cs=tinysrgb&h=130",
                "portrait": "https://images.pexels.com/photos/208984/pexels-photo-208984.jpeg?auto=compress&cs=tinysrgb&fit=crop&h=1200&w=800",
                "landscape": "https://images.pexels.com/photos/208984/pexels-photo-208984.jpeg?auto=compress&cs=tinysrgb&fit=crop&h=627&w=1200",
                "tiny": "https://images.pexels.com/photos/208984/pexels-photo-208984.jpeg?auto=compress&cs=tinysrgb&dpr=1&fit=crop&h=200&w=280"
            },
            "alt": "Low Angle Shot of a Tabby Cat"
        },
        {
            "id": 774731,
            "width": 5403,
            "height": 3602,
            "url": "https://www.pexels.com/photo/cute-gray-kitten-standing-on-a-wooden-flooring-774731/",
            "photographer": "Marko Blazevic",
            "photographer_url": "https://www.pexels.com/@kerber",
            "photographer_id": 194642,
            "avg_color": "#624F36",
            "src": {
                "original": "https://images.pexels.com/photos/774731/pexels-photo-774731.jpeg",
                "large2x": "https://images.pexels.com/photos/774731/pexels-photo-774731.jpeg?auto=compress&cs=tinysrgb&dpr=2&h=650&w=940",
                "large": "https://images.pexels.com/photos/774731/pexels-photo-774731.jpeg?auto=compress&cs=tinysrgb&h=650&w=940",
                "medium": "https://images.pexels.com/photos/774731/pexels-photo-774731.jpeg?auto=compress&cs=tinysrgb&h=350",
                "small": "https://images.pexels.com/photos/774731/pexels-photo-774731.jpeg?auto=compress&cs=tinysrgb&h=130",
                "portrait": "https://images.pexels.com/photos/774731/pexels-photo-774731.jpeg?auto=compress&cs=tinysrgb&fit=crop&h=1200&w=800",
                "landscape": "https://images.pexels.com/photos/774731/pexels-photo-774731.jpeg?auto=compress&cs=tinysrgb&fit=crop&h=627&w=1200",
                "tiny": "https://images.pexels.com/photos/774731/pexels-photo-774731.jpeg?auto=compress&cs=tinysrgb&dpr=1&fit=crop&h=200&w=280"
            },
            "alt": "Cute Gray Kitten standing on a Wooden Flooring "
        }
    ],
    "total_results": 8000,
    "next_page": "https://api.pexels.com/v1/search/?page=2&per_page=15&query=cats"
}